{
  "http_interactions": [
    {
      "request": {
        "method": "get",
        "uri": "https://testing:Mi9lMmY2MjI2M2JmOTU3NDFmYzZiMTM1NGEwMDQzNTI3NmFlZTMxMmY2YTJlMzA4OGViOGNkYjNmYWY0YmY0MGYyODQ3MGU3MWEwZGEyZGFhZjBkN2E2OGYwMGM5ZmVkNzdlNTU3ZWMzYzFhOTI4YjhiN2Q4ZWRmZWJkMDM5YWZlZTJhMTE1NDg1OTM3YjhkNTdkMmQ2OGVkNTJhYTc0NGZlNzQ1N2E2YjM3YzZmZDQxZGU1OGViMzgyMTIzMzZmN2Q4YzQzMjg5ZTFhNDU4MThkNTZkNTZiMzAxMjEyZjk5YjExNWFhNzY0NjYwYjUyOGNkYTA4M2ZiMGYwMmMwZTBi@shift-platform-dev-api.global.ssl.fastly.net/testing/v1/shipping_methods.json_api?page%5Bnumber%5D=1&page%5Bsize%5D=1",
        "body": {
          "encoding": "US-ASCII",
          "string": ""
        },
        "headers": {
          "User-Agent": [
            "Faraday v0.15.4"
          ],
          "Content-Type": [
            "application/vnd.api+json"
          ],
          "Accept": [
            "application/vnd.api+json"
          ],
          "Accept-Encoding": [
            "gzip;q=1.0,deflate;q=0.6,identity;q=0.3"
          ]
        }
      },
      "response": {
        "status": {
          "code": 200,
          "message": "OK"
        },
        "headers": {
          "Content-Type": [
            "application/vnd.api+json"
          ],
          "External-Surrogate-Key": [
            "testing%2Fshipping_methods testing%2Fshipping_method%2F234"
          ],
          "Cache-Control": [
            "max-age=0, must-revalidate"
          ],
          "Etag": [
            "W/\"e42ccb8096629495eac75e5b9f369a9b\""
          ],
          "Strict-Transport-Security": [
            "max-age=15552000; includeSubDomains"
          ],
          "Content-Length": [
            "347"
          ],
          "Accept-Ranges": [
            "bytes"
          ],
          "Date": [
            "Thu, 29 Nov 2018 13:55:11 GMT"
          ],
          "Age": [
            "0"
          ],
          "Connection": [
            "keep-alive"
          ],
          "Vary": [
            "Accept-Encoding"
          ]
        },
        "body": {
          "encoding": "ASCII-8BIT",
          "string": "{\"data\":[{\"id\":\"234\",\"type\":\"shipping_methods\",\"links\":{\"self\":\"/testing/v1/shipping_methods/234.json_api\"},\"attributes\":{\"meta_attributes\":{},\"updated_at\":\"2018-05-29T12:28:56Z\",\"created_at\":\"2018-05-29T12:28:56Z\",\"label\":\"Test Shipping Method\",\"sku\":\"test_shipping_8c8b5722-380b-4b7b-b569-cd937c0076eb\",\"reference\":\"testing_shipping_8c8b5722-380b-4b7b-b569-cd937c0076eb\",\"description\":null,\"sub_total\":5.0,\"tax\":0.0,\"total\":5.0,\"tax_rate\":0.0}}],\"meta\":{\"total_entries\":2,\"page_count\":2},\"links\":{\"self\":\"/testing/v1/shipping_methods.json_api?page%5Bnumber%5D=1&page%5Bsize%5D=1\",\"first\":\"/testing/v1/shipping_methods.json_api?page%5Bnumber%5D=1&page%5Bsize%5D=1\",\"next\":\"/testing/v1/shipping_methods.json_api?page%5Bnumber%5D=2&page%5Bsize%5D=1\",\"last\":\"/testing/v1/shipping_methods.json_api?page%5Bnumber%5D=2&page%5Bsize%5D=1\"}}",
          "decoded": {
            "data": [
              {
                "id": "234",
                "type": "shipping_methods",
                "links": {
                  "self": "/testing/v1/shipping_methods/234.json_api"
                },
                "attributes": {
                  "meta_attributes": {
                  },
                  "updated_at": "2018-05-29T12:28:56Z",
                  "created_at": "2018-05-29T12:28:56Z",
                  "label": "Test Shipping Method",
                  "sku": "test_shipping_8c8b5722-380b-4b7b-b569-cd937c0076eb",
                  "reference": "testing_shipping_8c8b5722-380b-4b7b-b569-cd937c0076eb",
                  "description": null,
                  "sub_total": 5.0,
                  "tax": 0.0,
                  "total": 5.0,
                  "tax_rate": 0.0
                }
              }
            ],
            "meta": {
              "total_entries": 2,
              "page_count": 2
            },
            "links": {
              "self": "/testing/v1/shipping_methods.json_api?page%5Bnumber%5D=1&page%5Bsize%5D=1",
              "first": "/testing/v1/shipping_methods.json_api?page%5Bnumber%5D=1&page%5Bsize%5D=1",
              "next": "/testing/v1/shipping_methods.json_api?page%5Bnumber%5D=2&page%5Bsize%5D=1",
              "last": "/testing/v1/shipping_methods.json_api?page%5Bnumber%5D=2&page%5Bsize%5D=1"
            }
          }
        },
        "http_version": null
      },
      "recorded_at": "Thu, 29 Nov 2018 13:55:11 GMT"
    },
    {
      "request": {
        "method": "get",
        "uri": "https://testing:Mi9lMmY2MjI2M2JmOTU3NDFmYzZiMTM1NGEwMDQzNTI3NmFlZTMxMmY2YTJlMzA4OGViOGNkYjNmYWY0YmY0MGYyODQ3MGU3MWEwZGEyZGFhZjBkN2E2OGYwMGM5ZmVkNzdlNTU3ZWMzYzFhOTI4YjhiN2Q4ZWRmZWJkMDM5YWZlZTJhMTE1NDg1OTM3YjhkNTdkMmQ2OGVkNTJhYTc0NGZlNzQ1N2E2YjM3YzZmZDQxZGU1OGViMzgyMTIzMzZmN2Q4YzQzMjg5ZTFhNDU4MThkNTZkNTZiMzAxMjEyZjk5YjExNWFhNzY0NjYwYjUyOGNkYTA4M2ZiMGYwMmMwZTBi@shift-platform-dev-api.global.ssl.fastly.net/testing/v1/shipping_methods.json_api",
        "body": {
          "encoding": "US-ASCII",
          "string": ""
        },
        "headers": {
          "User-Agent": [
            "Faraday v0.15.4"
          ],
          "Content-Type": [
            "application/vnd.api+json"
          ],
          "Accept": [
            "application/vnd.api+json"
          ],
          "Accept-Encoding": [
            "gzip;q=1.0,deflate;q=0.6,identity;q=0.3"
          ]
        }
      },
      "response": {
        "status": {
          "code": 200,
          "message": "OK"
        },
        "headers": {
          "Content-Type": [
            "application/vnd.api+json"
          ],
          "External-Surrogate-Key": [
            "testing%2Fshipping_methods testing%2Fshipping_method%2F234 testing%2Fshipping_method%2F919"
          ],
          "Cache-Control": [
            "max-age=0, must-revalidate"
          ],
          "Etag": [
            "W/\"4814ae1033706807925c96b4fc3ea7d2\""
          ],
          "Strict-Transport-Security": [
            "max-age=15552000; includeSubDomains"
          ],
          "Content-Length": [
            "403"
          ],
          "Accept-Ranges": [
            "bytes"
          ],
          "Date": [
            "Thu, 29 Nov 2018 13:55:12 GMT"
          ],
          "Age": [
            "0"
          ],
          "Connection": [
            "keep-alive"
          ],
          "Vary": [
            "Accept-Encoding"
          ]
        },
        "body": {
          "encoding": "ASCII-8BIT",
          "string": "{\"data\":[{\"id\":\"234\",\"type\":\"shipping_methods\",\"links\":{\"self\":\"/testing/v1/shipping_methods/234.json_api\"},\"attributes\":{\"meta_attributes\":{},\"updated_at\":\"2018-05-29T12:28:56Z\",\"created_at\":\"2018-05-29T12:28:56Z\",\"label\":\"Test Shipping Method\",\"sku\":\"test_shipping_8c8b5722-380b-4b7b-b569-cd937c0076eb\",\"reference\":\"testing_shipping_8c8b5722-380b-4b7b-b569-cd937c0076eb\",\"description\":null,\"sub_total\":5.0,\"tax\":0.0,\"total\":5.0,\"tax_rate\":0.0}},{\"id\":\"919\",\"type\":\"shipping_methods\",\"links\":{\"self\":\"/testing/v1/shipping_methods/919.json_api\"},\"attributes\":{\"meta_attributes\":{},\"updated_at\":\"2018-11-12T16:13:49Z\",\"created_at\":\"2018-11-12T16:13:49Z\",\"label\":\"Test Shipping Method\",\"sku\":\"test_shipping_12282640-f656-4ef6-989e-e0cbc5199959\",\"reference\":\"testing_shipping_12282640-f656-4ef6-989e-e0cbc5199959\",\"description\":null,\"sub_total\":5.0,\"tax\":0.0,\"total\":5.0,\"tax_rate\":0.0}}],\"meta\":{\"total_entries\":2,\"page_count\":1},\"links\":{\"self\":\"/testing/v1/shipping_methods.json_api\",\"first\":\"/testing/v1/shipping_methods.json_api?page%5Bnumber%5D=1&page%5Bsize%5D=25\",\"last\":\"/testing/v1/shipping_methods.json_api?page%5Bnumber%5D=1&page%5Bsize%5D=25\"}}",
          "decoded": {
            "data": [
              {
                "id": "234",
                "type": "shipping_methods",
                "links": {
                  "self": "/testing/v1/shipping_methods/234.json_api"
                },
                "attributes": {
                  "meta_attributes": {
                  },
                  "updated_at": "2018-05-29T12:28:56Z",
                  "created_at": "2018-05-29T12:28:56Z",
                  "label": "Test Shipping Method",
                  "sku": "test_shipping_8c8b5722-380b-4b7b-b569-cd937c0076eb",
                  "reference": "testing_shipping_8c8b5722-380b-4b7b-b569-cd937c0076eb",
                  "description": null,
                  "sub_total": 5.0,
                  "tax": 0.0,
                  "total": 5.0,
                  "tax_rate": 0.0
                }
              },
              {
                "id": "919",
                "type": "shipping_methods",
                "links": {
                  "self": "/testing/v1/shipping_methods/919.json_api"
                },
                "attributes": {
                  "meta_attributes": {
                  },
                  "updated_at": "2018-11-12T16:13:49Z",
                  "created_at": "2018-11-12T16:13:49Z",
                  "label": "Test Shipping Method",
                  "sku": "test_shipping_12282640-f656-4ef6-989e-e0cbc5199959",
                  "reference": "testing_shipping_12282640-f656-4ef6-989e-e0cbc5199959",
                  "description": null,
                  "sub_total": 5.0,
                  "tax": 0.0,
                  "total": 5.0,
                  "tax_rate": 0.0
                }
              }
            ],
            "meta": {
              "total_entries": 2,
              "page_count": 1
            },
            "links": {
              "self": "/testing/v1/shipping_methods.json_api",
              "first": "/testing/v1/shipping_methods.json_api?page%5Bnumber%5D=1&page%5Bsize%5D=25",
              "last": "/testing/v1/shipping_methods.json_api?page%5Bnumber%5D=1&page%5Bsize%5D=25"
            }
          }
        },
        "http_version": null
      },
      "recorded_at": "Thu, 29 Nov 2018 13:55:12 GMT"
    }
  ],
  "recorded_with": "VCR 4.0.0"
}