{
  "http_interactions": [
    {
      "request": {
        "method": "get",
        "uri": "https://testing:Mi9lMmY2MjI2M2JmOTU3NDFmYzZiMTM1NGEwMDQzNTI3NmFlZTMxMmY2YTJlMzA4OGViOGNkYjNmYWY0YmY0MGYyODQ3MGU3MWEwZGEyZGFhZjBkN2E2OGYwMGM5ZmVkNzdlNTU3ZWMzYzFhOTI4YjhiN2Q4ZWRmZWJkMDM5YWZlZTJhMTE1NDg1OTM3YjhkNTdkMmQ2OGVkNTJhYTc0NGZlNzQ1N2E2YjM3YzZmZDQxZGU1OGViMzgyMTIzMzZmN2Q4YzQzMjg5ZTFhNDU4MThkNTZkNTZiMzAxMjEyZjk5YjExNWFhNzY0NjYwYjUyOGNkYTA4M2ZiMGYwMmMwZTBi@shift-platform-dev-api.global.ssl.fastly.net/testing/v1/shipping_methods.json_api?page%5Bnumber%5D=1&page%5Bsize%5D=1",
        "body": {
          "encoding": "US-ASCII",
          "string": ""
        },
        "headers": {
          "User-Agent": [
            "Faraday v0.15.0"
          ],
          "Content-Type": [
            "application/vnd.api+json"
          ],
          "Accept": [
            "application/vnd.api+json"
          ],
          "Accept-Encoding": [
            "gzip;q=1.0,deflate;q=0.6,identity;q=0.3"
          ]
        }
      },
      "response": {
        "status": {
          "code": 200,
          "message": "OK"
        },
        "headers": {
          "Content-Type": [
            "application/vnd.api+json"
          ],
          "External-Surrogate-Key": [
            "testing%2Fshipping_methods testing%2Fshipping_method%2F234"
          ],
          "Cache-Control": [
            "max-age=0, must-revalidate"
          ],
          "Etag": [
            "W/\"ebe3709af26f5623911e6f0a2bd19680\""
          ],
          "X-Request-Id": [
            "a59afaab-2b6c-4062-97cd-12f586bd58c0"
          ],
          "X-Runtime": [
            "0.024582"
          ],
          "Strict-Transport-Security": [
            "max-age=15552000; includeSubDomains"
          ],
          "Content-Length": [
            "348"
          ],
          "Accept-Ranges": [
            "bytes"
          ],
          "Date": [
            "Mon, 04 Jun 2018 12:31:58 GMT"
          ],
          "Age": [
            "0"
          ],
          "Connection": [
            "keep-alive"
          ],
          "X-Served-By": [
            "cache-lcy19251-LCY"
          ],
          "X-Cache": [
            "MISS"
          ],
          "X-Cache-Hits": [
            "0"
          ],
          "X-Timer": [
            "S1528115519.568495,VS0,VE83"
          ],
          "Vary": [
            "Accept-Encoding"
          ],
          "Access-Control-Allow-Credentials": [
            "true"
          ],
          "Access-Control-Allow-Headers": [
            "Accept, Accept-Encoding, Accept-Language, Content-Type, Authorization"
          ],
          "Access-Control-Allow-Origin": [
            "*"
          ],
          "Access-Control-Max-Age": [
            "3600"
          ]
        },
        "body": {
          "encoding": "ASCII-8BIT",
          "string": "{\"data\":[{\"id\":\"234\",\"type\":\"shipping_methods\",\"links\":{\"self\":\"/testing/v1/shipping_methods/234.json_api\"},\"attributes\":{\"meta_attributes\":{},\"updated_at\":\"2018-05-29T12:28:56Z\",\"created_at\":\"2018-05-29T12:28:56Z\",\"label\":\"Test Shipping Method\",\"sku\":\"test_shipping_8c8b5722-380b-4b7b-b569-cd937c0076eb\",\"reference\":\"testing_shipping_8c8b5722-380b-4b7b-b569-cd937c0076eb\",\"description\":null,\"sub_total\":5.0,\"tax\":0.0,\"total\":5.0,\"tax_rate\":0.0}}],\"meta\":{\"total_entries\":3,\"page_count\":3},\"links\":{\"self\":\"/testing/v1/shipping_methods.json_api?page%5Bnumber%5D=1&page%5Bsize%5D=1\",\"first\":\"/testing/v1/shipping_methods.json_api?page%5Bnumber%5D=1&page%5Bsize%5D=1\",\"next\":\"/testing/v1/shipping_methods.json_api?page%5Bnumber%5D=2&page%5Bsize%5D=1\",\"last\":\"/testing/v1/shipping_methods.json_api?page%5Bnumber%5D=3&page%5Bsize%5D=1\"}}",
          "decoded": {
            "data": [
              {
                "id": "234",
                "type": "shipping_methods",
                "links": {
                  "self": "/testing/v1/shipping_methods/234.json_api"
                },
                "attributes": {
                  "meta_attributes": {
                  },
                  "updated_at": "2018-05-29T12:28:56Z",
                  "created_at": "2018-05-29T12:28:56Z",
                  "label": "Test Shipping Method",
                  "sku": "test_shipping_8c8b5722-380b-4b7b-b569-cd937c0076eb",
                  "reference": "testing_shipping_8c8b5722-380b-4b7b-b569-cd937c0076eb",
                  "description": null,
                  "sub_total": 5.0,
                  "tax": 0.0,
                  "total": 5.0,
                  "tax_rate": 0.0
                }
              }
            ],
            "meta": {
              "total_entries": 3,
              "page_count": 3
            },
            "links": {
              "self": "/testing/v1/shipping_methods.json_api?page%5Bnumber%5D=1&page%5Bsize%5D=1",
              "first": "/testing/v1/shipping_methods.json_api?page%5Bnumber%5D=1&page%5Bsize%5D=1",
              "next": "/testing/v1/shipping_methods.json_api?page%5Bnumber%5D=2&page%5Bsize%5D=1",
              "last": "/testing/v1/shipping_methods.json_api?page%5Bnumber%5D=3&page%5Bsize%5D=1"
            }
          }
        },
        "http_version": null
      },
      "recorded_at": "Mon, 04 Jun 2018 12:31:57 GMT"
    },
    {
      "request": {
        "method": "get",
        "uri": "https://testing:Mi9lMmY2MjI2M2JmOTU3NDFmYzZiMTM1NGEwMDQzNTI3NmFlZTMxMmY2YTJlMzA4OGViOGNkYjNmYWY0YmY0MGYyODQ3MGU3MWEwZGEyZGFhZjBkN2E2OGYwMGM5ZmVkNzdlNTU3ZWMzYzFhOTI4YjhiN2Q4ZWRmZWJkMDM5YWZlZTJhMTE1NDg1OTM3YjhkNTdkMmQ2OGVkNTJhYTc0NGZlNzQ1N2E2YjM3YzZmZDQxZGU1OGViMzgyMTIzMzZmN2Q4YzQzMjg5ZTFhNDU4MThkNTZkNTZiMzAxMjEyZjk5YjExNWFhNzY0NjYwYjUyOGNkYTA4M2ZiMGYwMmMwZTBi@shift-platform-dev-api.global.ssl.fastly.net/testing/v1/shipping_methods.json_api",
        "body": {
          "encoding": "US-ASCII",
          "string": ""
        },
        "headers": {
          "User-Agent": [
            "Faraday v0.15.0"
          ],
          "Content-Type": [
            "application/vnd.api+json"
          ],
          "Accept": [
            "application/vnd.api+json"
          ],
          "Accept-Encoding": [
            "gzip;q=1.0,deflate;q=0.6,identity;q=0.3"
          ]
        }
      },
      "response": {
        "status": {
          "code": 200,
          "message": "OK"
        },
        "headers": {
          "Content-Type": [
            "application/vnd.api+json"
          ],
          "External-Surrogate-Key": [
            "testing%2Fshipping_methods testing%2Fshipping_method%2F234 testing%2Fshipping_method%2F311 testing%2Fshipping_method%2F337"
          ],
          "Cache-Control": [
            "max-age=0, must-revalidate"
          ],
          "Etag": [
            "W/\"7b0962a1eed3995bb3cc89a40486ff63\""
          ],
          "X-Request-Id": [
            "7282bcd0-83d9-4599-8319-df8bf0031098"
          ],
          "X-Runtime": [
            "0.025743"
          ],
          "Strict-Transport-Security": [
            "max-age=15552000; includeSubDomains"
          ],
          "Content-Length": [
            "453"
          ],
          "Accept-Ranges": [
            "bytes"
          ],
          "Date": [
            "Mon, 04 Jun 2018 12:31:59 GMT"
          ],
          "Age": [
            "0"
          ],
          "Connection": [
            "keep-alive"
          ],
          "X-Served-By": [
            "cache-lcy19249-LCY"
          ],
          "X-Cache": [
            "MISS"
          ],
          "X-Cache-Hits": [
            "0"
          ],
          "X-Timer": [
            "S1528115519.345111,VS0,VE86"
          ],
          "Vary": [
            "Accept-Encoding"
          ],
          "Access-Control-Allow-Credentials": [
            "true"
          ],
          "Access-Control-Allow-Headers": [
            "Accept, Accept-Encoding, Accept-Language, Content-Type, Authorization"
          ],
          "Access-Control-Allow-Origin": [
            "*"
          ],
          "Access-Control-Max-Age": [
            "3600"
          ]
        },
        "body": {
          "encoding": "ASCII-8BIT",
          "string": "{\"data\":[{\"id\":\"234\",\"type\":\"shipping_methods\",\"links\":{\"self\":\"/testing/v1/shipping_methods/234.json_api\"},\"attributes\":{\"meta_attributes\":{},\"updated_at\":\"2018-05-29T12:28:56Z\",\"created_at\":\"2018-05-29T12:28:56Z\",\"label\":\"Test Shipping Method\",\"sku\":\"test_shipping_8c8b5722-380b-4b7b-b569-cd937c0076eb\",\"reference\":\"testing_shipping_8c8b5722-380b-4b7b-b569-cd937c0076eb\",\"description\":null,\"sub_total\":5.0,\"tax\":0.0,\"total\":5.0,\"tax_rate\":0.0}},{\"id\":\"311\",\"type\":\"shipping_methods\",\"links\":{\"self\":\"/testing/v1/shipping_methods/311.json_api\"},\"attributes\":{\"meta_attributes\":{},\"updated_at\":\"2018-05-31T10:13:06Z\",\"created_at\":\"2018-05-31T10:13:06Z\",\"label\":\"rich test\",\"sku\":\"\",\"reference\":\"rich_test\",\"description\":\"\",\"sub_total\":0.0,\"tax\":0.0,\"total\":0.0,\"tax_rate\":0.0}},{\"id\":\"337\",\"type\":\"shipping_methods\",\"links\":{\"self\":\"/testing/v1/shipping_methods/337.json_api\"},\"attributes\":{\"meta_attributes\":{},\"updated_at\":\"2018-06-04T10:51:29Z\",\"created_at\":\"2018-06-04T10:51:29Z\",\"label\":\"Test Shipping Method\",\"sku\":\"test_shipping_32eebf0d-1670-4d12-80b8-7427ea9823ac\",\"reference\":\"testing_shipping_32eebf0d-1670-4d12-80b8-7427ea9823ac\",\"description\":null,\"sub_total\":5.0,\"tax\":0.0,\"total\":5.0,\"tax_rate\":0.0}}],\"meta\":{\"total_entries\":3,\"page_count\":1},\"links\":{\"self\":\"/testing/v1/shipping_methods.json_api\",\"first\":\"/testing/v1/shipping_methods.json_api?page%5Bnumber%5D=1&page%5Bsize%5D=25\",\"last\":\"/testing/v1/shipping_methods.json_api?page%5Bnumber%5D=1&page%5Bsize%5D=25\"}}",
          "decoded": {
            "data": [
              {
                "id": "234",
                "type": "shipping_methods",
                "links": {
                  "self": "/testing/v1/shipping_methods/234.json_api"
                },
                "attributes": {
                  "meta_attributes": {
                  },
                  "updated_at": "2018-05-29T12:28:56Z",
                  "created_at": "2018-05-29T12:28:56Z",
                  "label": "Test Shipping Method",
                  "sku": "test_shipping_8c8b5722-380b-4b7b-b569-cd937c0076eb",
                  "reference": "testing_shipping_8c8b5722-380b-4b7b-b569-cd937c0076eb",
                  "description": null,
                  "sub_total": 5.0,
                  "tax": 0.0,
                  "total": 5.0,
                  "tax_rate": 0.0
                }
              },
              {
                "id": "311",
                "type": "shipping_methods",
                "links": {
                  "self": "/testing/v1/shipping_methods/311.json_api"
                },
                "attributes": {
                  "meta_attributes": {
                  },
                  "updated_at": "2018-05-31T10:13:06Z",
                  "created_at": "2018-05-31T10:13:06Z",
                  "label": "rich test",
                  "sku": "",
                  "reference": "rich_test",
                  "description": "",
                  "sub_total": 0.0,
                  "tax": 0.0,
                  "total": 0.0,
                  "tax_rate": 0.0
                }
              },
              {
                "id": "337",
                "type": "shipping_methods",
                "links": {
                  "self": "/testing/v1/shipping_methods/337.json_api"
                },
                "attributes": {
                  "meta_attributes": {
                  },
                  "updated_at": "2018-06-04T10:51:29Z",
                  "created_at": "2018-06-04T10:51:29Z",
                  "label": "Test Shipping Method",
                  "sku": "test_shipping_32eebf0d-1670-4d12-80b8-7427ea9823ac",
                  "reference": "testing_shipping_32eebf0d-1670-4d12-80b8-7427ea9823ac",
                  "description": null,
                  "sub_total": 5.0,
                  "tax": 0.0,
                  "total": 5.0,
                  "tax_rate": 0.0
                }
              }
            ],
            "meta": {
              "total_entries": 3,
              "page_count": 1
            },
            "links": {
              "self": "/testing/v1/shipping_methods.json_api",
              "first": "/testing/v1/shipping_methods.json_api?page%5Bnumber%5D=1&page%5Bsize%5D=25",
              "last": "/testing/v1/shipping_methods.json_api?page%5Bnumber%5D=1&page%5Bsize%5D=25"
            }
          }
        },
        "http_version": null
      },
      "recorded_at": "Mon, 04 Jun 2018 12:31:58 GMT"
    }
  ],
  "recorded_with": "VCR 4.0.0"
}